{
    "s": 1,
    "statusCode": 200,
    "msg": "Data Menu",
    "opt": {
        "total": 4,
        "limit": 25,
        "page": 1,
        "pages": 1
    },
    "dt": [
        {
            "_id": "59eafd17af5156209de0448e",
            "updated_at": "2017-10-21T07:53:59.190Z",
            "created_at": "2017-10-21T07:53:59.190Z",
            "namaResto": "Martabak Apin",
            "jamBuka": "09:00-22:00",
            "koordinat": {
                "latitude": -6.1996747,
                "longitude": 106.8945456
            },
            "alamat": "1.7 Km Jln A.R Hakim No 17 Karawang Kulon, Karawang Barat, Karawang",
            "kategoriMenu": "Martabak",
            "foto": "",
            "harga": 45000,
            "deskripsi": "",
            "namaMenu": "Biasa Ayam",
            "__v": 0,
            "show": true
        },
        {
            "_id": "59eafd50af5156209de0448f",
            "updated_at": "2017-10-21T07:54:56.862Z",
            "created_at": "2017-10-21T07:54:56.862Z",
            "namaResto": "Martabak Apin",
            "jamBuka": "09:00-22:00",
            "koordinat": {
                "latitude": -6.1996747,
                "longitude": 106.8945456
            },
            "alamat": "1.7 Km Jln A.R Hakim No 17 Karawang Kulon, Karawang Barat, Karawang",
            "kategoriMenu": "Martabak",
            "foto": "",
            "harga": 68000,
            "deskripsi": "",
            "namaMenu": "Biasa Ayam Mozarella",
            "__v": 0,
            "show": true
        },
        {
            "_id": "59eafd60af5156209de04490",
            "updated_at": "2017-10-21T07:55:12.758Z",
            "created_at": "2017-10-21T07:55:12.758Z",
            "namaResto": "Martabak Apin",
            "jamBuka": "09:00-22:00",
            "koordinat": {
                "latitude": -6.1996747,
                "longitude": 106.8945456
            },
            "alamat": "1.7 Km Jln A.R Hakim No 17 Karawang Kulon, Karawang Barat, Karawang",
            "kategoriMenu": "Martabak",
            "foto": "",
            "harga": 62000,
            "deskripsi": "",
            "namaMenu": "Spesial Ayam",
            "__v": 0,
            "show": true
        },
        {
            "_id": "59eafd71af5156209de04491",
            "updated_at": "2017-10-21T07:55:29.649Z",
            "created_at": "2017-10-21T07:55:29.649Z",
            "namaResto": "Martabak Apin",
            "jamBuka": "09:00-22:00",
            "koordinat": {
                "latitude": -6.1996747,
                "longitude": 106.8945456
            },
            "alamat": "1.7 Km Jln A.R Hakim No 17 Karawang Kulon, Karawang Barat, Karawang",
            "kategoriMenu": "Martabak",
            "foto": "",
            "harga": 85000,
            "deskripsi": "",
            "namaMenu": "Spesial Ayam Mozarella",
            "__v": 0,
            "show": true
        }
    ]
}